{
	"credit": "Made with Blockbench",
	"parent": "minecraft:block/orientable_with_bottom",
	"textures": {
		"top": "block/beehive_end",
		"particle": "block/beehive_side"
	},
	"elements": [
		{
			"from": [0, 0, 0],
			"to": [16, 16, 16],
			"faces": {
				"north": {"uv": [0.5, 0.5, 15.5, 15.5], "texture": "#top"},
				"east": {"uv": [0.5, 0.5, 15.5, 15.5], "texture": "#top"},
				"south": {"uv": [0.5, 0.5, 15.5, 15.5], "texture": "#top"},
				"west": {"uv": [0.5, 0.5, 15.5, 15.5], "texture": "#top"},
				"up": {"uv": [0.5, 0.5, 15.5, 15.5], "texture": "#top"},
				"down": {"uv": [0.5, 0.5, 15.5, 15.5], "texture": "#top"}
			}
		}
	]
}