{
  "textures": {
    "0": "block/white_concrete_powder",
    "particle": "block/white_concrete_powder"
  },
    "elements": [
        {   "from": [ 0, 0, 0 ],
            "to": [ 16, 16, 0 ],
            "faces": {
                "north": { "texture": "#0", "cullface":"north" }
            }
        }
    ]
}
