{
    "multipart": [
        {   "when": { "north": false },
            "apply": { "model": "block/barrier" }
        },
        {   "when": { "east": false },
            "apply": { "model": "block/barrier", "y": 90, "uvlock": false }
        },
        {   "when": { "south": false },
            "apply": { "model": "block/barrier", "y": 180, "uvlock": false }
        },
        {   "when": { "west": false },
            "apply": { "model": "block/barrier", "y": 270, "uvlock": false }
        },
        {   "when": { "down": false },
            "apply": { "model": "block/barrier", "x": 90, "uvlock": false }
        },
        {   "when": { "down": true },
            "apply": { "model": "block/barrier", "x": 90, "uvlock": true }
        },
        {   "when": { "up": true },
            "apply": { "model": "block/block_korytarz", "x": 0, "uvlock": false }
        },
        {   "when": { "up": false },
            "apply": { "model": "block/white_concrete_powder", "x": 270, "uvlock": false }
        },
        {   "when": { "east": true },
            "apply": { "model": "block/outside_brown", "y": 90, "uvlock": true }
        },
        {   "when": { "north": true },
            "apply": { "model": "block/outside_brown" }
        },
        {   "when": { "south": true },
            "apply": { "model": "block/outside_brown", "y": 180, "uvlock": true }
        },
        {   "when": { "west": true },
            "apply": { "model": "block/outside_brown", "y": 270, "uvlock": true }
        }
    ]
}
